0,4.2997872551441425,2.7646022800286825,0.5074198736145278,0.0107271
0,4.2474609517334,2.7646006304627107,0.509554732985989,0.113419
0,4.038019530079071,2.7646024617706755,0.518518007590396,0.235353
0,3.9856225528893225,2.764600696976938,0.5208709601398197,0.241008
0,3.7758669287727815,2.7646015555221806,0.5307817810065477,0.406545
0,3.723379669735548,2.7646025018833873,0.5333897472828948,0.456482
0,3.5658030622287598,2.764600713069066,0.5415505442691144,0.636929
0,3.5132208449227895,2.7646017076732377,0.5443881183407778,0.803728
0,3.3553167061545772,2.764601691144122,0.553284536782172,1.0843
0,3.302620237099627,2.764602772707461,0.5563841603650572,1.06907
0,3.1443263244447137,2.764602111373827,0.5661070132061518,1.20907
0,3.0914769925393264,2.7646018790556246,0.5694974200383575,0.922865
0,2.9856476907572334,2.764601387087117,0.5765202776548278,0.208372
0,3.0385874455371527,2.7646016378019307,0.5729691923337653,0.590899
0,3.2498904540768754,2.7646005722626303,0.559551789231715,1.01444
0,3.19712933896957,2.764603011444393,0.5627906605755354,1.42695
0,1.879551166077955,2.764602490230845,0.5526625211590901,0.0343106
0,3.4606157617828655,2.7646027354325367,0.547290083838579,0.689829
0,3.4079864029805047,2.764600646245762,0.5502560510408941,0.869504
0,1.9862011333583516,2.7646005090015344,0.5435978802136732,0.097465
0,1.9595613003088217,2.764601387087117,0.5457994958375321,0.0447738
0,1.932907860432566,2.764602291379798,0.5480425744132964,0.0814602
0,1.9062328557812658,2.7646009920209553,0.5503317792241865,0.0368564
0,3.670876290819401,2.7646005722626303,0.5360533882530818,0.511317
0,3.618353907745896,2.7646027017076906,0.5387721977758495,0.571358
0,2.061697214378484,2.764602111373827,0.5329046295938487,2.78547
0,3.933211022332771,2.7646015760316325,0.5232746086096338,0.273974
0,3.8807788992030967,2.7646024809421696,0.5257254470319214,0.394136
0,3.8283345192132834,2.7646006374119656,0.5282276087348454,0.36135
0,2.2171140110172503,2.764600693891221,0.5176210689136113,5.58894
0,2.1653758062444957,2.7646022700633273,0.5225580830954554,5.80818
0,2.1135703056912964,2.7646024441536636,0.5276524611147655,0.89617
0,2.2688057776286183,2.764601037151347,0.512829751197748,5.17316
0,4.2474609517334,2.7646006304627107,0.509554732985989,0.0123763
0,4.195113892005794,2.7646014492238913,0.5117288471734628,0.297617
0,4.142759012180168,2.7646022904180327,0.5139481422337712,0.192315
0,4.09040333005194,2.7646015948319222,0.5162102822345573,0.203829
0,2.4236089573039625,2.7646015386821436,0.4992965286126676,5.01734
0,2.526612366391014,2.764602111373827,0.4909135129394199,6.36807
0,2.629476810251233,2.7646006731884696,0.4829969810200918,3.8476
0,2.7322447510472045,2.76460123445793,0.4755135284780266,4.68682
0,2.8349257340050373,2.764601387087117,0.46843268081011286,4.18769
0,2.9888043202919796,2.764602111373827,0.4584953851030003,1.90033
0,3.1425438970044635,2.764602772707461,0.44930874853079256,1.01981
0,3.296196737180595,2.7646027354325367,0.4407932220476962,0.635619
0,3.4497682981035114,2.7646027017076906,0.4328772185639296,0.508594
0,3.6544419567151425,2.7646006374119656,0.42316468753558134,0.307887
0,3.8590531908358043,2.7646024617706755,0.41429911967815125,0.198019
0,4.012470913601742,2.7646014492238913,0.40814180607201134,0.0293531
0,3.961331852963091,2.7646022904180327,0.41015187289118377,0.162804
0,3.9101991788910193,2.7646015948319222,0.4122019485392703,0.171761
0,3.8079056505643627,2.764600696976938,0.4164408703191023,0.202426
0,3.7567540695925254,2.7646015760316325,0.41863258919449503,0.230315
0,3.705598258054966,2.7646024809421696,0.42087329634737286,0.333103
0,1.6573319902545174,2.7646017076732377,0.41363698263864834,0.19442
0,1.760020573464981,2.764602490230845,0.40487511597679826,0.437458
0,1.8626294323010149,2.7646005090015344,0.39685948572357455,0.571572
0,1.9368530788536853,2.764602111373827,0.38751496355221376,10.583
0,1.987332065263377,2.7646024441536636,0.38296504763075373,3.46622
0,1.836985324052699,2.764601387087117,0.39879831364440915,0.334411
0,1.811337405402428,2.764602291379798,0.4007791655584241,0.598695
0,1.785676828891499,2.7646009920209553,0.40280550647678603,0.265395
0,1.734351510169147,2.7646011533735533,0.4069931018679689,0.292756
0,1.708686210084227,2.764602111373827,0.4091566800702366,0.281746
0,1.6830072771063704,2.7646007252792737,0.41137205494642537,0.245086
0,1.6316422074992423,2.764600268644717,0.41595688829721256,0.220046
0,1.6059547866474948,2.7646012766025607,0.41832893954122335,0.133561
0,1.5802609306709445,2.7646023193117157,0.4207576511765925,0.142316
0,3.6032788023271247,2.7646015555221806,0.4255098924523563,0.35009
0,3.5521085503965106,2.7646025018833873,0.42790806043361856,0.397254
0,3.500939000225511,2.7646005722626303,0.4303639978953605,0.449956
0,1.5545515417759552,2.764601467755933,0.4232480085921072,0.0850582
0,1.5288437153041512,2.7646025511185384,0.425796433250708,0.0563724
0,1.5031198431402601,2.764600996609396,0.4284108820324941,0.0691521
0,3.398586614035311,2.764600713069066,0.43545188929764306,0.573508
0,3.3473961895329927,2.7646017076732377,0.43809069719468297,0.733257
0,1.477395904714779,2.764602111373827,0.4310873658921439,0.092094
0,1.451654664404038,2.764600489903817,0.4338343151486287,0.105479
0,1.425912877061218,2.7646016378019307,0.43664918229154326,0.333811
0,3.244992063487983,2.764600646245762,0.4435620930141784,0.808625
0,3.1937717758944517,2.764601691144122,0.446398565940438,1.02046
0,1.4001605867474631,2.764602830708029,0.4395359763521378,0.91312
0,1.374389519558411,2.7646011263435044,0.44250201358409263,2.17368
0,1.3486151272509144,2.764602357504318,0.44554278559878274,4.78512
0,3.09130809221598,2.7646005722626303,0.45229267828790376,0.973727
0,3.040066635815735,2.764603011444393,0.45535394960905673,1.46562
0,1.3228203661502949,2.7646013470772535,0.44866945180738926,8.55673
0,1.2970208806094834,2.7646026353249042,0.4518766221395841,9.83361
0,1.271199249152154,2.7646007785025204,0.4551756065026209,3.87016
0,2.937527449914298,2.7646018790556246,0.46172037897907126,2.06528
0,2.8862372853554503,2.7646016378019307,0.4650334877620452,3.05057
0,1.2453708023380026,2.764602111373827,0.4585621667053584,0.98887
0,2.7835973955155584,2.7646014982542275,0.4719266369118404,3.78018
0,2.680876938429103,2.7646009596698824,0.4792065296665454,5.92131
0,2.5780618674298723,2.764602379044592,0.48689707719336794,5.34669
0,2.4751278578845177,2.764601831535972,0.4950440823901666,5.77396
0,2.372051710406837,2.7646012318826108,0.5036750901682682,6.76245
0,2.3204517858867484,2.764601363666724,0.5081845094996462,5.8998
0,5.365268719774341,3.015928997701255,0.2514549974263116,0.000277025
0,5.314796850506706,3.0159289595709544,0.25231057679056523,0.000459942
0,4.8102029184848325,3.0159287578703977,0.2617515334078769,0.00523966
0,4.759759507095815,3.015928985037809,0.2627950117324758,0.00612287
0,4.3562324559761505,3.0159287963753045,0.27192004826035343,0.0184932
0,4.30580478194135,3.015929048639077,0.2731656938207423,0.0214597
0,3.9528462881771658,3.0159291589013772,0.2826829317682742,0.0549734
0,3.9024277809204873,3.0159288441213565,0.2841654744401509,0.0632445
0,3.5999932022296934,3.015929003966572,0.2938148474502611,0.133156
0,3.5495893100172875,3.0159289463025347,0.29556035892988236,0.111875
0,3.2976225894719975,3.0159287963753045,0.30496947058024976,0.196071
0,3.24724020728033,3.015929134083103,0.3069986334597026,0.368057
0,3.045698016803373,3.015928962707215,0.3156786401327279,0.442044
0,2.9953224306241224,3.015928984846352,0.3179989299052662,0.491002
0,2.7937990297317383,3.0159287860392565,0.32796811779528023,0.704042
0,2.743425428755081,3.0159291884924193,0.33064513997151146,0.569298
0,2.5922813166932714,3.0159290663386007,0.3391781376965833,0.702322
0,2.541903108939442,3.015929094787537,0.3422005832508689,0.991354
0,2.390732227473625,3.0159289555286706,0.35186755515818186,0.860541
0,2.340330761040627,3.0159288653104706,0.3553054922192038,1.18153
0,2.2395193629546943,3.0159287963753045,0.36253360490624553,1.22088
0,2.189107151806188,3.015929307054915,0.36633552104336287,1.22117
0,2.088236690531272,3.015928612736307,0.3743539817125006,1.9442
0,2.037793418918856,3.0159291589013772,0.3785807836459235,1.76148
0,1.9368544188423145,3.015929094787537,0.3875146677973819,5.6766
0,1.8626351903282081,3.015929003966572,0.396858125965566,0.316448
0,1.8369806165272948,3.015928869473589,0.3987994474788188,0.178647
0,1.7343504022296072,3.0159287792562126,0.4069933915411155,0.0794397
0,1.7086839436583936,3.0159287963753045,0.4091572854129861,0.0358696
0,1.6059557592564622,3.0159286935569223,0.41832865558088783,0.0212731
0,1.5802606331972582,3.015929394889645,0.42075774006621686,0.0190634
0,1.5031242518467993,3.015929297320142,0.42840946600166496,0.021847
0,1.4773900936259183,3.0159283984901353,0.43108927952892917,0.0142196
0,1.4001597121043012,3.015929217662752,0.43953628767327296,0.108432
0,1.3743869350459499,3.0159282453336327,0.442502958660012,0.307763
0,1.2970145429832312,3.0159280577783494,0.4518791432449204,1.73248
0,3.040067610507372,3.015929297320142,0.455353782581222,0.0767726
0,2.8862378210320783,3.0159291884924193,0.46503338846070214,0.393695
0,2.8349234453508614,3.015928726160457,0.4684331167793334,0.417905
0,2.7322458415845383,3.0159290663386007,0.47551330875148645,0.59705
0,2.680884098725642,3.015929094787537,0.4792050446268949,0.740043
0,2.578055211968122,3.0159289282513537,0.4868985424519119,0.901938
0,2.5266117626576508,3.0159289555286706,0.4909136500191138,0.949237
0,2.423611365329846,3.0159293538408933,0.4992959458688569,1.58538
0,2.3720513345414767,3.0159287963753045,0.5036751841781317,1.45098
0,2.2688087183709427,3.015929216603932,0.5128289636587087,1.57841
0,2.2171141842494264,3.015928612736307,0.5176210208485037,0.844959
0,2.1653736617473207,3.0159291589013772,0.5225587001085438,0.850199
0,2.113565631381245,3.0159290571118893,0.5276538570426959,0.182021
0,2.3204576169559745,3.015929307054915,0.5081830009858714,1.52183
0,2.475124353782856,3.0159288653104706,0.4950449034868908,1.15071
0,2.6294810410210223,3.0159290132912577,0.4829960772618274,0.728383
0,2.7836014195622547,3.0159291435140454,0.4719258487787623,0.606372
0,2.9888017928594732,3.0159288626892558,0.45849582949024265,0.292383
0,2.937521981141418,3.0159287860392565,0.4617213660455517,0.367771
0,1.2712000803905734,3.0159289282513537,0.45517526601464237,0.907785
0,1.2453704961239447,3.0159289555286706,0.4585622959420069,0.32327
0,1.3486112896346376,3.0159290663386007,0.44554422801196686,0.416914
0,1.3228241609529967,3.015929094787537,0.4486679848822485,1.17995
0,1.451656198261145,3.0159284116558194,0.4338337970262598,0.029255
0,1.4259131481314,3.0159291884924193,0.4366490883225205,0.0687688
0,1.5545498576144157,3.0159285450796998,0.42324852388575457,0.031868
0,1.5288408810396195,3.0159285601574357,0.4257973215498414,0.0130126
0,1.6830124171654228,3.015928814046561,0.41137065196714306,0.0641433
0,1.6573267240680094,3.0159286610055727,0.4136384521115677,0.0283446
0,1.6316443373554177,3.015928677010017,0.4159562804980556,0.0494868
0,1.8113315382662558,3.0159288869170338,0.400780607281242,0.330912
0,1.7856783953455897,3.0159289048890066,0.40280511364170274,0.0978974
0,1.760021317230277,3.0159289234138984,0.40487492556068577,0.0922778
0,1.9873270940335916,3.0159290571118893,0.38296610205678866,1.29253
0,2.138677207767689,3.015929216603932,0.37027425470919445,0.904381
0,2.2899328340805107,3.0159293538408933,0.35885770782266313,0.905232
0,2.4915130636683402,3.0159290132912577,0.34532094912069256,0.782938
0,2.4411197117267722,3.0159289282513537,0.3485420066787369,1.37365
0,2.6930422351795746,3.015928726160457,0.3334044085615851,0.815285
0,2.6426673133962586,3.0159291435140454,0.3362467310755257,0.880084
0,2.9449384580900837,3.0159289144842445,0.3203861635274756,0.4025
0,2.894564642534694,3.015929297320142,0.3228406424850207,0.585037
0,2.8441818052958574,3.0159288626892558,0.3253672423053919,0.643175
0,3.1968501509942566,3.0159290719351235,0.3090827460324052,0.247855
0,3.1464615057146337,3.015928677010017,0.3112225612595604,0.364992
0,3.096083887508541,3.0159290298667956,0.3134198633977651,0.301561
0,3.4991898535598214,3.0159288869170338,0.29735134980353584,0.166952
0,3.448798980862758,3.0159289048890066,0.29918316631922015,0.189481
0,3.398401816472708,3.015928843039099,0.30106357271288114,0.158449
0,3.348015757860318,3.0159291709227354,0.3029908967930818,0.235272
0,3.852011721073678,3.0159287889724617,0.28568227359811965,0.0535449
0,3.801607991883961,3.0159290756916906,0.28723394542003056,0.0805557
0,3.7511950982320292,3.0159287466397955,0.28882078042844184,0.0680501
0,3.700794890856422,3.0159290408393282,0.2904453973260896,0.102138
0,3.650388729937676,3.01592898534961,0.29211097521164475,0.11672
0,4.25537390448313,3.015929001364949,0.2744419366434627,0.0248771
0,4.204941669654884,3.015928707956595,0.27574209932304833,0.0212072
0,4.154522920732175,3.0159289685753223,0.27707122842825316,0.0321371
0,4.104096167301151,3.0159289184923868,0.2784293157121467,0.0371443
0,4.053680813643324,3.015928934104202,0.279816072509245,0.03158
0,4.003257717420776,3.015928882272715,0.28123401901044215,0.0477213
0,4.709308876762703,3.015928941740154,0.2638595709627624,0.00714963
0,4.658867863333323,3.0159289555286706,0.26494261617108944,0.00613481
0,4.608419760860441,3.0159289109264575,0.2660480995989754,0.00936043
0,4.557974417573666,3.0159288653104706,0.2671761873656944,0.0109062
0,4.507541676834503,3.0159288786960614,0.26832704310336486,0.00933989
0,4.45709966811255,3.0159288316444477,0.26950042822610665,0.0142215
0,4.406670429310093,3.0159290783875785,0.2706981634967916,0.0121625
0,5.264326225985715,3.0159289206929367,0.2531808479007916,0.00089447
0,5.213866660098722,3.015928932771378,0.25406574746984567,0.000822352
0,5.163398775666662,3.015928892847792,0.2549667071283411,0.00238909
0,5.1129421218120585,3.0159289048890066,0.2558831967276495,0.00168042
0,5.062477337202509,3.015928863866127,0.2568167111694357,0.00257714
0,5.012023848222991,3.015929080416442,0.25776673810379447,0.00222014
0,4.96156520546692,3.015928833676911,0.25873683680519455,0.00340155
0,4.911105821756338,3.0159287906088803,0.2597230489305612,0.00398259
0,4.860658043768971,3.0159290132912577,0.26072739560025743,0.00342549
0,5.546531399071766,3.015928997701255,0.3630775588024512,0.000276733
0,5.4953853758727425,3.0159289595709544,0.3642218301310479,0.000459526
0,5.444238794358767,3.0159289206929367,0.3653843962711647,0.000518373
0,5.393101182713801,3.015928932771378,0.3665650919120032,0.000397156
0,4.352106575877939,2.638938113638786,0.5053267298453594,0.0603799
0,4.299790748001581,2.6389393277670545,0.5074193869342298,0.381238
0,4.090394512281181,2.6389380727440517,0.516211603539472,0.0306561
0,4.2474630403218345,2.638936952780024,0.5095544367444077,0.0363036
0,4.2474630403218345,2.638936952780024,0.5095544367444077,0.209368
0,4.195113576936863,2.638936881998009,0.5117288926760333,0.0269298
0,4.195113576936863,2.638936881998009,0.5117288926760333,0.0776384
0,4.142764019166431,2.638938129152045,0.513947405761267,0.0661941
0,4.5394822234809995,2.638938113638786,0.5898861604845512,0.0584845
0,4.48556330079066,2.6389393277670545,0.5920013727319438,0.16485
0,4.26960876190079,2.6389380727440517,0.6008457854735237,0.0362704
0,4.4316131790692195,2.638936952780024,0.594153024770423,0.0459468
0,4.377636644240817,2.638936881998009,0.5963449705894668,0.0901936
0,4.323640042232933,2.638938129152045,0.5985745151244114,0.077896
0,4.323640469430824,2.513272947330953,0.5985744408078656,0.0000659765
0,3.297626583634963,2.7646027017076906,0.30496907786074845,0.132711
0,3.297626583634963,2.7646027017076906,0.30496907786074845,0.00503262
0,3.2472399526811997,2.764600713069066,0.3069986590710068,0.138501
0,3.045698526710088,2.764601691144122,0.3156785837004522,0.118493
0,3.2472399526811997,2.764600713069066,0.3069986590710068,0.00290953
0,3.1968516061049814,2.7646017076732377,0.3090825962145101,0.130967
0,3.1968516061049814,2.7646017076732377,0.3090825962145101,0.000576062
0,3.146464548845895,2.7646027354325367,0.3112222404413213,0.130427
0,3.146464548845895,2.7646027354325367,0.3112222404413213,0.00176238
0,3.0960826904494976,2.764600646245762,0.3134199926705645,0.120343
0,3.0456995508429583,2.8902650319126577,0.31567847035792374,0.0545824
0,2.9953175752924768,2.8902651266157227,0.3179994808335086,0.158685
0,2.7938069629315834,2.8902657486104837,0.3279671182755475,0.250025
0,2.7434273466632937,2.8902654936707823,0.33064489160064836,0.277646
0,2.5922834179774785,2.890265457096284,0.33917784118500205,0.274598
0,2.54189910373563,2.890265174837969,0.3422011655381028,0.498962
0,2.3907284230303114,2.8902651137564424,0.35186816247212954,0.493632
0,2.340330327455507,2.8902647980345324,0.35530556372705324,0.390066
0,2.2395159927649546,2.8902645827177866,0.36253419954906035,0.567226
0,2.18910668643536,2.890265916543582,0.36633560607766824,0.584478
0,2.2899262149538795,2.890264918132146,0.35885883649245,0.544004
0,2.491512205786277,2.890265292731587,0.34532107770265225,0.324417
0,2.4411222288926866,2.890264994627768,0.34854161745694706,0.461538
0,2.6930471881758775,2.8902656085694356,0.33340374890940444,0.307037
0,2.6426662641220893,2.8902653406311307,0.33624687487581084,0.337999
0,2.944937011240308,2.8902648787782192,0.32038633192828714,0.17864
0,2.894556937160677,2.890264974140774,0.32284156286656823,0.254262
0,2.844177386652422,2.8902647143002853,0.32536778422583534,0.170525
0,3.5009406835020784,2.638938103021892,0.430363764460302,0.0693898
0,3.449767005146869,2.6389395675161786,0.432877401844918,0.0752422
0,3.296197023601593,2.6389381211885734,0.4407931785874271,0.0966786
0,3.2449865276299685,2.638938052216676,0.44356295295189013,0.0885179
0,3.091312081511668,2.6389381419504745,0.4522920116882325,0.169016
0,3.0400597462056567,2.6389380683399986,0.45535513024942365,0.195048
0,3.193776105584109,2.638936620339103,0.4463978771131926,0.128034
0,3.1425457519978925,2.638936522613756,0.44930844614726195,0.117876
0,3.3985838752339186,2.638936698414643,0.4354522862863762,0.0806759
0,3.347398957250241,2.6389381878988654,0.43809028681171863,0.0833894
0,3.670877896171432,2.638938103021892,0.5360531062640078,0.0858413
0,3.618352675030448,2.6389395675161786,0.5387724189673645,0.0886783
0,3.4606160345955748,2.6389381211885734,0.5472900315473307,0.107756
0,3.407981131887323,2.638938052216676,0.5502570846192012,0.0982759
0,3.2498942487102562,2.6389381419504745,0.559550990717226,0.17966
0,3.197122787820324,2.6389380683399986,0.5627920731813081,0.0390175
0,3.35532082738745,2.638936620339103,0.5532837097670218,0.139776
0,3.3026220021825083,2.638936522613756,0.5563837977251782,0.126943
0,3.565800451862106,2.638936698414643,0.5415510229025273,0.0943136
0,3.5132234820033865,2.6389381878988654,0.5443876240589239,0.0929694
0,3.2976252310255028,2.6389395675161786,0.30496921085373124,0.00523274
0,3.2976252310255028,2.6389395675161786,0.30496921085373124,0.00507329
0,3.247237086230231,2.638936698414643,0.30699894742087125,0.0721903
0,3.196854504158111,2.6389381878988654,0.309082297832014,0.131415
0,3.146464848896933,2.6389381211885734,0.3112222088088594,0.0515298
0,3.67295642779764,2.6389381878988654,0.6287271498477457,0.00341975
0,3.091471796101171,3.0159287860392565,0.5694985981303341,0.098325
0,3.038587954355773,3.0159291884924193,0.5729690739673282,0.0833954
0,2.9856455176393597,3.015928726160457,0.5765207966402982,0.0610756
0,3.5009378108586846,2.513274027717801,0.4303641628356874,0.0112394
0,3.670875156512409,2.513274027717801,0.5360535875006525,0.118684
0,3.618347062402942,2.5132743741474783,0.5387734260681369,0.0235216
0,3.4606179646126787,2.513272785997738,0.5472896616125189,0.0220251
0,3.5657954043663245,2.5132747317522663,0.5415519484073772,0.0709635
0,3.5132206758044675,2.513272448566395,0.544388150039546,0.0317423
0,3.836163870404913,2.513274027717801,0.6205552397363205,0.0537279
0,3.7818079582258006,2.5132743741474783,0.6232299318482651,0.0249049
0,3.6184508532934365,2.513272785997738,0.6315567821210467,0.0252392
0,3.672953743637401,2.513272448566395,0.6287277403416153,0.0365645
0,2.038337493279511,2.890265589320472,0.19547882481851667,0.445115
0,1.988307068997392,2.890265742025114,0.19788519975473043,0.595035
0,1.838221804268734,2.890265174837969,0.20571539201937436,1.7745
0,1.76366909234017,2.8902658558411254,0.2113353331760843,0.117004
0,1.663129176637221,2.8902656426833775,0.21620128463633717,0.0409218
0,1.5625865942484596,2.8902654015700704,0.22156685839430065,0.0261302
0,1.5374455275257723,2.890264345868949,0.22299592173800836,0.0234391
0,1.5123134643363458,2.890264940419927,0.22446093777752724,0.0208631
0,1.4871807964790293,2.8902662234554213,0.22596524340304838,0.0184122
0,1.6379891673136915,2.890264656732959,0.21749351629646807,0.0378234
0,1.612858508240881,2.8902652184675466,0.21881702035559486,0.0665971
0,1.5877176805455686,2.8902648187618833,0.22017475594839128,0.0289254
0,1.7385295757363461,2.890264931024107,0.21250940281025518,0.0536727
0,1.7133993609056821,2.890265463314971,0.21371000413572802,0.0504537
0,1.6882595392723243,2.890265091544944,0.21494142232296248,0.0913154
0,1.9382780583953891,2.8902653929868216,0.20038963691886263,0.586703
0,1.8882494954523354,2.890265548639487,0.20299741927400472,0.427021
0,1.8882462781522966,3.0159290571118893,0.2029977747330116,1.30267
0,1.838224919623548,3.015929094787537,0.2057150334610779,2.58545
0,1.713394138254535,3.0159288869170338,0.21371067556835296,0.0747953
0,1.663130516835645,3.0159289234138984,0.2162011049350662,0.0581754
0,1.512314364898383,3.0159286935569223,0.22446079957917994,0.10445
0,1.4620360904109035,3.0159285450796998,0.22751202480893082,0.0502346
0,1.3363433399186753,3.0159291884924193,0.23590865663228064,0.40403
0,1.3112042049311008,3.015929217662752,0.2377355231084195,1.159
0,1.2860543200417314,3.0159282453336327,0.23961861179755184,1.69643
0,1.1854693863267831,3.0159289282513537,0.24773934116341095,5.19463
0,1.1603216093915516,3.0159289555286706,0.24993269092807327,0.365177
0,1.2609127465998589,3.0159290663386007,0.24155676942162044,4.79618
0,1.2357697391379188,3.015929094787537,0.24355366392563965,7.73353
0,1.210615683542056,3.0159280577783494,0.24561506545753026,6.26286
0,1.4369009869830975,3.0159285601574357,0.229099288257665,0.0707039
0,1.4117650138808513,3.015929297320142,0.2307302275238759,0.0506534
0,1.386618858370605,3.0159283984901353,0.23240888264684764,0.0811425
0,1.3614816009590436,3.0159284116558194,0.2341338098602635,0.130522
0,1.4871802470127822,3.015929394889645,0.22596532976116676,0.057178
0,1.6379885819534885,3.0159287792562126,0.21749359649548272,0.0529696
0,1.6128563505892273,3.0159287963753045,0.21881732251927816,0.0479585
0,1.5877236500238319,3.015928814046561,0.22017390112815957,0.0817383
0,1.5625811855740488,3.0159286610055727,0.22156765066716774,0.0342419
0,1.53744799940811,3.015928677010017,0.22299555120451936,0.0301525
0,1.6882624535894886,3.0159289048890066,0.21494103975225992,0.132665
0,1.7636673697372756,3.015929003966572,0.2113355457919335,0.179088
0,1.7385259263344335,3.015928869473589,0.21250986244844652,0.0806117
0,1.7856756400164058,2.890265091544944,0.40280580462321325,0.0542606
0,1.7600200508110697,2.8902656426833775,0.4048752497848837,0.144375
0,1.6573318235419845,2.8902654015700704,0.4136370291578253,0.0630164
0,1.6316420081773453,2.890264345868949,0.41595694517799486,0.109134
0,1.528844561688663,2.8902657669554204,0.42579616798243075,0.0527901
0,1.5031206560359684,2.8902646219283072,0.4284106209380746,0.0534454
0,1.4259140706346929,2.8902654936707823,0.43664876852841716,0.5127
0,1.4001532797876095,2.8902642534762713,0.4395385772112537,1.79348
0,1.3228222368802998,2.890265174837969,0.44866872865365975,13.8672
0,1.2970230680839876,2.8902659388205603,0.4518757519700194,13.8938
0,1.271201176346608,2.890265415751114,0.45517481709510893,5.43533
0,1.2453730451121865,2.890266219041656,0.4585612201521731,0.217418
0,1.3743907721896274,2.8902657280641177,0.4425015555373157,4.36335
0,1.3486079003794986,2.8902644420328407,0.445545501911621,8.59203
0,1.4773968115252585,2.890265994107861,0.43108706727402213,0.137952
0,1.4516555376731077,2.8902648101580715,0.4338340201664663,0.333817
0,1.6059549112051683,2.890264940419927,0.41832890317567245,0.0464999
0,1.5802611502988992,2.8902662234554213,0.42075758554847226,0.0780163
0,1.5545520659656273,2.8902651266157227,0.4232478482089461,0.0182463
0,1.7343509550667653,2.890264656732959,0.4069932470006117,0.0871337
0,1.7086859803032854,2.8902652184675466,0.40915674144265374,0.11763
0,1.6830067856681388,2.8902648187618833,0.4113721890850357,0.107036
1,3.650390151764603,-3.1415926535895866,0.2921108548507527,0.0585781
1,3.5999890911084718,-3.1415926535895866,0.29381520262789657,0.322171
1,3.3480129966332273,-3.1415926535895866,0.3029911622575923,0.462616
1,3.297623792520305,-3.1415926535895866,0.30496935229239486,0.383072
1,3.0960823502615367,-3.1415926535895866,0.3134200294081624,0.571932
1,3.0457005498741996,-3.1415926535895866,0.3156783597935164,0.832094
1,2.844181484623652,-3.1415926535895866,0.32536728163387546,0.867844
1,2.793802763052718,-3.1415926535895866,0.32796764742590906,1.8534
1,2.642664276124381,-3.1415926535895866,0.33624714732605565,1.67967
1,2.5922823214536264,-3.1415926535895866,0.33917799591508524,2.5711
1,2.4411233276147684,-3.1415926535895866,0.34854144756514166,2.51413
1,2.3907304063572288,-3.1415926535895866,0.3518678458678232,2.84024
1,2.2899297275121784,-3.1415926535895866,0.35885823754265656,2.2194
1,2.2395201502663467,-3.1415926535895866,0.36253346599174385,3.2368
1,2.138676708286926,-3.1415926535895866,0.3702743493092025,2.428
1,2.0882400655291047,-3.1415926535895866,0.37435331855282156,2.52387
1,1.9873291797344497,-3.1415926535895866,0.38296565966706514,0.939357
1,1.9368511361715437,-3.1415926535895866,0.38751539233104465,2.59425
1,1.8626332038941538,-3.1415926535895866,0.3968585950608214,0.085324
1,1.8369852577092174,-3.1415926535895866,0.39879832962356876,0.154647
1,1.8113335068200445,-3.1415926535895866,0.40078012355017184,0.0694665
1,1.7856776953033826,-3.1415926535895866,0.4028052891980655,0.0643512
1,1.7600179527823006,-3.1415926535895866,0.40487578691604525,0.113823
1,2.0377915232182118,-3.1415926535895866,0.3785811704577122,2.22947
1,2.1891026494890546,-3.1415926535895866,0.3663363437253897,2.68199
1,2.340332959491876,-3.1415926535895866,0.3553051296460598,2.917
1,2.5418986621885615,-3.1415926535895866,0.34220122973152156,2.31498
1,2.4915126524745967,-3.1415926535895866,0.3453210107516428,2.19835
1,2.7434238067028582,-3.1415926535895866,0.33064535002905554,1.62548
1,2.693044542587627,-3.1415926535895866,0.3334041012549917,2.10533
1,2.995319469188554,-3.1415926535895866,0.31799926593531985,0.91613
1,2.9449395622064976,-3.1415926535895866,0.32038603501798923,0.745053
1,2.8945603804128877,-3.1415926535895866,0.3228411515807616,1.074
1,3.247236018229812,-3.1415926535895866,0.306999054856229,0.562984
1,3.19685004194066,-3.1415926535895866,0.3090827572605467,0.627459
1,3.1464653520011945,-3.1415926535895866,0.3112221557698101,0.697246
1,3.5495892945522582,-3.1415926535895866,0.2955603602939087,0.21874
1,3.4991939295929284,-3.1415926535895866,0.2973509826531838,0.41216
1,3.4487975310244003,-3.1415926535895866,0.2991832997335775,0.278693
1,3.398404454507438,-3.1415926535895866,0.3010633246302611,0.412071
1,3.1937737052584048,-3.1415926535895866,0.4463982589901082,0.0617205
1,3.142548074811267,-3.1415926535895866,0.449308067504749,0.142279
1,2.988801487703725,-3.1415926535895866,0.458495883144486,0.110131
1,2.834925637278692,-3.1415926535895866,0.46843269923564396,0.203584
1,2.7835985360680158,-3.1415926535895866,0.4719264135276848,0.234292
1,2.6808798825012654,-3.1415926535895866,0.47920591906718657,0.234666
1,2.629480651402478,-3.1415926535895866,0.48299616049025956,0.327789
1,2.526610039479777,-3.1415926535895866,0.49091404127290844,0.235642
1,2.5780586357955473,-3.1415926535895866,0.4868977886649506,0.291097
1,2.7322467948741385,-3.1415926535895866,0.4755131166784377,0.21159
1,3.091311178383697,-3.1415926535895866,0.4522921625980983,0.157582
1,3.0400635523784696,-3.1415926535895866,0.45535447800252055,0.236177
1,3.3553185426275105,-3.1415926535895866,0.5532841682535377,0.0687649
1,3.302624212410489,-3.1415926535895866,0.5563833436300644,0.151742
1,3.2498933896514206,-3.1415926535895866,0.5595511714909723,0.163927
1,3.1971264070098946,-3.1415926535895866,0.5627912927847356,0.0330922
1,1.8882484732947622,-3.1415926535895866,0.20299753220555347,1.85311
1,1.8382214608215737,-3.1415926535895866,0.20571543154812072,3.37532
1,1.7133962193304852,-3.1415926535895866,0.21371040802129115,0.0938482
1,1.6631269563809614,-3.1415926535895866,0.21620158234133308,0.0711108
1,1.5123135169960626,-3.1415926535895866,0.22446092969647366,0.0471329
1,1.462039408519483,-3.1415926535895866,0.2275114904657397,0.0159849
1,1.3363425074268946,-3.1415926535895866,0.23590880910822196,0.00425218
1,1.3112005660954391,-3.1415926535895866,0.23773620801222634,0.00535515
1,1.28605752033453,-3.1415926535895866,0.23961799243019796,0.00150569
1,1.1854712477867186,-3.1415926535895866,0.24773893604289907,0.0000418278
1,1.2609132630157398,-3.1415926535895866,0.2415566665967859,0.000961784
1,1.2357674524638524,-3.1415926535895866,0.2435541326341485,0.000871757
1,1.2106202257723104,-3.1415926535895866,0.24561410640116912,0.000138492
1,1.4369014916493057,-3.1415926535895866,0.2290992049485725,0.0244771
1,1.41176282920645,-3.1415926535895866,0.23073059738193227,0.00900005
1,1.38662352348754,-3.1415926535895866,0.2324080722754035,0.00717589
1,1.3614834551917994,-3.1415926535895866,0.23413347920671895,0.00559616
1,1.4871767073606283,-3.1415926535895866,0.22596588608029497,0.0188198
1,1.6379920165009965,-3.1415926535895866,0.2174931259359494,0.11389
1,1.6128569655229814,-3.1415926535895866,0.21881723640211728,0.10269
1,1.5877214469660603,-3.1415926535895866,0.22017421660190523,0.173917
1,1.562585971049593,-3.1415926535895866,0.22156694968135693,0.0723594
1,1.5374499673108066,-3.1415926535895866,0.22299525621813238,0.0634194
1,1.6882617131535027,-3.1415926535895866,0.2149411369512666,0.164379
1,1.7636652718347663,-3.1415926535895866,0.2113358047305054,0.22924
1,1.7385308303510179,-3.1415926535895866,0.21250924479337158,0.101973
2,2.2022059987430787,3.015929003966572,0.7276666590421176,0.113511
2,2.172735918917897,3.015928869473589,0.7294837386534002,0.170703
2,2.024884991425439,3.0159287963753045,0.7389082142487874,0.1551
2,1.9952059888866112,3.015928814046561,0.7408680343389336,0.0991365
2,2.143234536533275,3.0159288869170338,0.7313165259914609,0.170083
2,2.113706428646135,3.0159289048890066,0.7331790016072691,0.168062
2,2.0841390891898266,3.0159289234138984,0.7350629243065628,0.164536
2,2.0545246451159938,3.0159287792562126,0.7369732560168173,0.106949
2,2.5686066718337783,3.015929307054915,0.6971020371334669,0.106235
3,1.9654836050193853,-3.1415926535895866,0.7428560810378968,0.185863
3,1.935717228936086,-3.1415926535895866,0.744865507104957,0.0857987
3,1.9059177003218162,-3.1415926535895866,0.746908888721467,0.0804687
3,2.6247960140932856,-3.1415926535895866,0.6930176517174673,0.298821
3,1.79490799942504,-3.1415926535895866,0.6767472263632259,0.109884
3,1.7665759797132985,-3.1415926535895866,0.6792567607267959,0.0335801
4,2.0883634137584868,2.2619476869717445,0.193164906780571,0.0917259
4,2.038337863703905,2.2619463689004795,0.19547878838250807,0.202213
4,1.9883058342216873,2.261948252074835,0.1978853258785639,0.148266
4,1.8382165800103643,2.2619467074562962,0.20571599330242452,0.783868
4,1.7636710362978691,2.2619466059426743,0.211335093239579,0.0272112
4,1.7385284494022524,2.261947298047013,0.21250954467059077,0.0520695
4,1.7133994609010474,2.2619488053684003,0.21370999128020113,0.0247827
4,1.9382825291829877,2.2619468795029634,0.20038916223233377,0.158075
4,1.8882461153938594,2.2619447133340658,0.20299779271518922,0.166384
4,2.390730173227627,2.387610915923336,0.3518678830829562,0.000605121
4,2.34032994985408,2.387611315499719,0.3553056260019681,0.000414976
4,2.2395180273552167,2.387608700449804,0.3625338405617647,0.391845
4,2.1891045896667434,2.387612414480252,0.3663359892076165,0.0416232
4,2.289930375304891,2.387608343107341,0.358858127083419,0.284581
4,2.1383942853225175,2.387608700449804,0.19093791074884778,0.180628
4,2.0883665582279853,2.387612414480252,0.19316460864160162,0.0576807
4,1.688260713484739,2.1362832458777237,0.21494126818059306,0.046884
4,1.6631248212031473,2.1362841917965985,0.21620186863929677,0.0220361
4,1.4871804954063241,2.136281424330796,0.22596529072181973,0.024109
4,1.4620415400298994,2.1362818785381985,0.2275111472118703,0.0104526
4,1.436902489825945,2.1362829520595747,0.22909904017213792,0.0177962
4,1.311202036670932,2.136282099725075,0.2377359312191506,0.0031576
4,1.2860573396229267,2.1362826310311904,0.23961802740405708,0.00439631
4,1.2609119530692854,2.1362838732727427,0.24155692742361587,0.00139196
4,1.2357644940412391,2.1362844636694494,0.24355473903630895,0.000962593
4,1.2106197179502736,2.1362827990687374,0.2456142136234376,0.000616621
4,1.4117621729855918,2.1362834505633503,0.23073070847816046,0.0074
4,1.3866212141190541,2.1362839675315155,0.2324084734321049,0.00644963
4,1.3614800154618505,2.1362851412390147,0.23413409259265713,0.0102326
4,1.3363456306962658,2.1362815888551476,0.2359082370634445,0.00389142
4,1.6379882230498484,2.1362846395713646,0.2174936456681726,0.0210592
4,1.6128597598566963,2.1362816994822684,0.2188168450761398,0.0390852
4,1.5877231056705072,2.1362826662259957,0.2201739790784505,0.0179828
4,1.5625859718482693,2.136283111010278,0.2215669495643655,0.0327652
4,1.5374483112235025,2.136283570621727,0.22299550446369196,0.0147625
4,1.512310727699172,2.136284618240763,0.22446135773714707,0.0136767
4,1.210618794100769,2.010620201696082,0.24561440868658327,0.000353528
4,1.1854701966498358,2.0106195635966224,0.24773916480785635,0.0000679952
5,2.0377886606319113,2.1362834623758156,-0.3785817545610645,0.101327
5,1.9873320173347986,2.1362822336134077,-0.38296505779664813,0.261549
5,1.936850812513189,2.136282975257975,-0.3875154637673522,0.878723
5,1.8626364786908904,2.1362815515665763,-0.3968578217200858,0.0319163
5,1.8369874543602631,2.136282430833793,-0.398797800549882,0.0607631
5,1.7343500632669289,2.1362846395713646,-0.4069934801637148,0.0240669
5,1.7086871617253405,2.1362816994822684,-0.4091564258956844,0.0443837
5,1.6059523341385322,2.136284618240763,-0.4183296555710486,0.015115
5,1.6830119036322946,2.1362826662259957,-0.41137079213557265,0.0202817
5,1.6573312367227622,2.136283111010278,-0.4136371929029347,0.0366907
5,1.6316446311694222,2.136283570621727,-0.4159561966522108,0.0164036
5,1.8113341313874147,2.1362828322729306,-0.4007799700760132,0.0287662
5,1.785676750170646,2.1362832458777237,-0.40280552621840915,0.0541178
5,1.7600159351485998,2.1362841917965985,-0.40487630346611486,0.0252865
5,2.4915152826224047,2.513272535416617,-0.3453206165376035,0.0637267
5,2.441126194264647,2.513272977432159,-0.3485410043052488,0.0428253
5,2.3907335088589443,2.513273439092708,-0.3518673506075438,0.0284889
5,2.289933299605908,2.513274426831115,-0.3588576284432169,0.0013553
5,2.239523956011411,2.5132749559764425,-0.3625327945016868,0.00284472
5,2.3403362971556034,2.5132739217376865,-0.35530457919310193,0.138635
5,2.541893449249201,2.3876100021803928,-0.3422019876059559,0.0863454
5,2.491517991093181,2.387610167783212,-0.3453202105852727,0.202932
5,2.441125877361715,2.3876105337208453,-0.3485410533067664,0.105107
5,2.423611805178379,2.513274426831115,-0.49929583942538813,0.000275844
5,2.4411258917608083,2.261948453546022,-0.34854105108028827,0.0465318
5,2.3907245425562937,2.2619467074562962,-0.35186878192531945,0.156317
5,2.289926271420982,2.261947174435133,-0.3588588268638504,0.134983
5,2.239521506471639,2.26194590692553,-0.3625332267010171,0.148162
5,2.1386804450335726,2.2619463689004795,-0.3702736415829462,0.224036
5,2.0882413897059413,2.261948252074835,-0.3743530583634931,0.143383
5,2.037797626016872,2.2619468795029634,-0.3785799252036861,0.098941
5,2.1891015898993818,2.2619476869717445,-0.3663365373385625,0.203887
5,2.3403319224169894,2.261945486947254,-0.35530530068250704,0.150817
5,1.4871804954063241,2.136281424330796,-0.22596529072181987,0.0264182
5,1.4620415400298994,2.1362818785381985,-0.22751114721187043,0.0113464
5,1.436902489825945,2.1362829520595747,-0.22909904017213795,0.0101446
5,1.4117621729855918,2.1362834505633503,-0.23073070847816046,0.0168454
5,1.3866212141190541,2.1362839675315155,-0.23240847343210488,0.00679915
5,1.3614800154618505,2.1362851412390147,-0.23413409259265722,0.0106489
5,1.3363467277338617,2.010617660771748,-0.23590803613535963,0.00398869
5,1.3111967808799716,2.010621084523415,-0.23773692047199374,0.0032008
5,1.2860541173236062,2.0106205151271404,-0.23961865103063115,0.00437614
5,1.1854701966498358,2.0106195635966224,-0.24773916480785652,0.0000707703
5,1.2609106555775471,2.0106206611262367,-0.24155718577112115,0.00135359
5,1.2357652264463506,2.0106200591849923,-0.24355458891141182,0.000919405
5,1.210618794100769,2.010620201696082,-0.24561440868658346,0.000898673
6,2.6625007838380066,2.879792814529508,1.726334897303874,0.0342045
6,2.612498265702774,2.8797929571685357,1.720014166020813,0.0305917
6,2.5625007085146336,2.8797932890436835,1.7135743412145794,0.0271555
6,2.5124986339453,2.8797935246700557,1.7070055355844544,0.0447637
6,2.462500981714525,2.8797930654110213,1.7003062411517373,0.0180127
6,2.4124974499196887,2.879793227979186,1.693468145832742,0.0153828
6,2.3624973218968948,2.879793733375689,1.6864879448289636,0.0237572
6,2.3125002865446307,2.8797928170884575,1.679358547841437,0.00882235
6,2.262495656928649,2.879792682898518,1.6720711990374972,0.00708392
6,2.21250204549171,2.879793046819083,1.6646255893015105,0.00556662
6,2.1624997572422986,2.8797926317440465,1.6570063181639678,0.00426487
6,2.112497929251056,2.8797935361251805,1.6492078468083171,0.00544264
7,3.112498014907158,2.6179941213932243,1.778383972886006,0.169226
7,3.062496705934718,2.617993876144774,1.7729854153050155,0.237284
7,3.012503887345044,2.617993972245211,1.7675009872294247,0.146536
7,2.9625002697351777,2.6179934095978377,1.7619213667635196,0.202944
7,2.9125045449277844,2.6179939382056614,1.756249606988788,0.124403
7,2.862497626766178,2.6179936639004353,1.7504752321923742,0.170153
7,2.812497904942331,2.617993849405637,1.7446018704959754,0.151375
7,2.762495858024949,2.6179939809604753,1.7386215414696968,0.0905414
7,2.7125000261529952,2.61799337504879,1.7325353170148672,0.082592
7,2.6625008676280277,2.617993889126317,1.7263346490578362,0.0749053
8,2.0625043340502343,-3.1415926535895866,1.6412285134300466,0.00155659
8,2.012500409089151,-3.1415926535895866,1.63304657194805,0.00161139
8,1.9625035600398282,-3.1415926535895866,1.6246623937975166,0.000327437
8,1.9125030914913574,-3.1415926535895866,1.6160616273847277,0.00000587289
9,3.112498014907158,2.0943948589914654,1.778383972886006,0.0360659
9,3.062496705934718,2.0943951042399163,1.7729854153050155,0.06839
9,3.012503887345044,2.094395008139479,1.7675009872294247,0.0322412
9,2.9625002697351777,2.094395570786852,1.7619213667635196,0.0603913
9,2.9125045449277844,2.0943950421790287,1.756249606988788,0.0547349
9,2.862497626766178,2.094395316484255,1.7504752321923742,0.0251868
9,2.812497904942331,2.094395130979053,1.7446018704959754,0.0237109
9,2.762495858024949,2.0943949994242144,1.7386215414696968,0.0429601
10,2.8624958353618615,-3.1415926535895866,3.5009532304603943,0.124105
10,3.012498290028394,-3.1415926535895866,3.535000958028196,0.080265
10,2.9624968224799835,-3.1415926535895866,3.5238431614418655,0.0749456
10,2.912496009116751,-3.1415926535895866,3.512494804062147,0.0697071
11,2.662502530067269,2.879792980582779,3.4526706080505147,0.0775627
11,2.812496422846118,2.879793340323126,3.489202499279988,0.0546426
11,2.7624976756716446,2.8797927425880014,3.4772472938489667,0.0498922
11,2.7124996922120816,2.8797926197528656,3.465073469939001,0.0453037
11,2.6124962084271894,2.8797928649586604,3.4400297386465346,0.0326541
11,2.5625007481399122,2.8797934254879083,3.4271471238560443,0.0288535
11,2.512496195651888,2.879793693495445,3.41400865700528,0.02528
11,2.462502515451184,2.879792674503474,3.4006152069764872,0.0407933
12,2.612496231569562,2.617994761119028,3.440027584562289,0.0631391
12,2.5625007228566083,2.617993608021863,3.4271494621146275,0.0265295
12,2.5124961560575194,2.6179933404059104,3.414012294809603,0.0233982
12,2.462502556447812,2.6179950315164544,3.4006114654731734,0.0204513
12,2.412499918215866,2.617994710973574,3.386936797574625,0.0488515
12,2.362498298759855,2.617992871967816,3.3729779174396404,0.0262199
12,2.3124978341259994,2.6179947499024077,3.35871502222034,0.0217533
12,2.2624984342001233,2.6179921071729946,3.3441481249270306,0.0249347
12,2.2125003094969364,2.6179933478936794,3.3292498743281644,0.0126414
12,2.162503435382522,2.6179944001799473,3.3140133126549607,0.0140708
12,2.1124978919796082,2.6179926077548217,3.298419182221692,0.00631432
12,2.0625037974618037,2.6179944966003883,3.2824513662618924,0.00404613
13,2.2372791940980457,1.6336279123504096,0.6362673881314612,0.132952
13,2.1830881953391166,1.633628149932676,0.6413697361387581,1.01089
13,2.2913430218812723,1.8849550213756143,0.6312881560686502,0.12057
13,2.2372750675455624,1.8849561270411832,0.6362689050903553,0.0828693
13,2.1830853860902923,1.8849561057348074,0.6413708071733221,0.0203497
13,2.29134439346773,1.759291212157177,0.6312876694724621,0.401656
13,2.237277546824488,1.75929179984629,0.6362679936834891,0.149835
13,2.342275956911354,1.75929179984629,0.7142364622897519,0.0133046
13,2.2852671660652724,1.7592913791799498,0.7187205336143061,0.146542
13,2.104413295789589,1.6336282428470217,0.651653401711009,0.0713433
13,1.9595651941081216,1.6336280799492768,0.545798182703779,0.0703967
13,1.9329000750212102,1.6336282870573005,0.548045251169372,0.0691248
13,1.6657533726972942,1.6336283710290105,0.7641837038554147,0.0370136
13,1.6355006813944193,1.6336283117351693,0.7664712505941446,0.0446041
13,1.6051821038930632,1.6336283314929816,0.7687800558490226,0.0404717
13,1.5748039447886713,1.6336282689049786,0.7711179061345026,0.0180227
13,1.5443660954855265,1.6336282885922702,0.7734867205547259,0.00728109
13,1.4832873837259217,1.5079645004250217,0.778301535611168,0.00041375
13,1.5138599771153902,1.5079644312392726,0.7758800095850377,0.00406115
13,1.5443660954855265,1.5079643649975232,0.7734867205547259,0.00249194
13,1.6654631605256989,1.5079645511989141,0.5730643081695583,0.0360411
13,1.692290492452076,1.5079644954521523,0.5703318759709247,0.0404588
13,1.7726503141613266,1.5079644700669719,0.5624586383683465,0.052518
13,1.7993995016285542,1.5079644192252286,0.5599375790815397,0.0559961
13,1.9062301044574865,1.507964533697565,0.5503327439155365,0.100563
13,1.826131104529193,1.5079643699974683,0.5574655435462864,0.0591548
13,1.852846557992863,1.50796425993126,0.5550418963164712,0.0619776
13,1.8795457712771988,1.5079640918344654,0.552664450772604,0.0644547
13,1.7190970012480389,1.5079645092578626,0.5676546686721061,0.0447113
13,1.7458831280136249,1.5079644560682754,0.5650305448469786,0.0487453
13,1.3686272745802635,1.382300295425669,0.6072480938287188,0.000344937
13,1.395771823111858,1.3823012004526656,0.6037928127187785,0.00155703
13,1.449944901780754,1.3823005681785825,0.5971100950779585,0.00566546
13,1.5039955747441547,1.3823014551497819,0.5907087422504625,0.0121564
13,1.5579185246825331,1.382300860984716,0.5845792945733644,0.0181513
13,1.6117347515773184,1.3823003100280962,0.5787041544138956,0.0269756
13,1.6654620286395,1.3823011126947642,0.5730647886843341,0.0000000000000000444089
13,1.6386100852734917,1.382300367711506,0.575855368524254,0.0315218
13,1.5848437517149758,1.3823009106003121,0.5816091003685567,0.0224873
13,1.5309667905467446,1.3823000538530967,0.587613038216218,0.00752487
13,1.4769859412550277,1.382300627620259,0.5938748295048532,0.00865371
13,1.4228717575343885,1.3822996876841127,0.6004172247873112,0.00327972
14,2.0125011688672383,2.356194490192345,3.2660922798218146,0.00239847
14,2.062503784832406,2.356194490192345,3.2824524527588705,0.00000000000000116296
15,3.0124982843039447,0.523599756565768,3.5350015167681064,0.122186
15,3.062500407375563,0.5235979149931467,3.545972437114943,0.0662261
15,3.1125030836490746,0.5235984041221108,3.5567701603295254,0.069622
16,3.112503077139041,0,3.5567708026987943,0.0965449
16,3.012498290028394,0,3.535000958028196,0.0856489
16,3.062500369159325,0,3.5459761877572418,0.0910809
17,1.9625035707101273,1.30899755972939,1.6246623588178517,0.000337162
17,2.0125004184521305,1.308997435655232,1.6330465415089646,0.001771
18,1.8624988139424412,1.047196880375975,1.6072295865095454,0.419068
18,1.9125033416025707,1.0471980678865294,1.616060800420542,2.6461
18,1.9625032467899257,1.047197686181683,1.6246634207030572,4.02209
18,2.0125003794834426,1.047197491218908,1.633046668196346,3.60392
18,2.0625043819584965,1.047197647347656,1.6412283589415555,2.4088
18,2.1124978073030043,1.0471967350326876,1.6492082369383831,1.37679
18,2.162500092143582,1.0471973186460883,1.657005255042705,0.648633
18,2.2125019472355274,1.0471971853939501,1.6646258988539195,0.360248
18,2.262495650050404,1.0471973036630542,1.672071220547046,0.0875401
18,2.3125002966706836,1.0471978228556733,1.6793585164041522,0.0501106
18,2.362497598448938,1.047197268947752,1.6864870923197022,0.0239307
18,2.4124975110231723,1.0471974360259584,1.6934679587774604,0.0185768
18,2.462500729103242,1.0471974525602985,1.7003070092212915,0.00104685
19,2.462500874935479,0.7853981633974483,1.7003065658153649,0.0164271
19,2.5124987729449737,0.7853981633974483,1.7070051157642512,0.0402095
19,2.562500721092581,0.7853981633974483,1.713574303473079,0.0240647
19,2.6124980975495466,0.7853981633974483,1.7200146673558265,0.0268762
19,2.662501024048254,0.7853981633974483,1.7263341856294778,0.0298026
19,2.71249989639115,0.7853981633974483,1.7325356990942598,0.0687875
19,2.762495951010607,0.7853981633974483,1.7386212693330456,0.0391567
19,2.8124979023793064,0.7853981633974483,1.7446018779525192,0.0424266
20,1.8000012984742537,1.1309735257855378,0.00000000000000011102230246251565,0.692789
20,1.8500000896659436,1.1309731925455542,0.00000000000000011102230246251565,0.159748
20,1.8999988808578283,1.1309728768441032,0.00000000000000011102230246251565,0.189163
20,1.9499976720498924,1.1309725773320982,0.00000000000000011102230246251565,0.141
20,1.999996463242123,1.130972292795358,0.00000000000000011102230246251565,0.130829
20,2.050004302703777,1.1309740991118342,0.00000000000000011102230246251565,0.177672
20,2.100003093895102,1.1309737918934195,0.00000000000000011102230246251565,0.27849
20,2.1500014593076444,1.13097391981341,0.00000000000000011102230246251565,0.0210191
20,1.14999975913954,1.382300295425669,0.00000000000000011102230246251565,0.0000666527
20,1.175002428094938,1.3823012004526656,0.00000000000000011102230246251565,0.000362316
20,1.199995461559751,1.3822996876841127,0.00000000000000011102230246251565,0.00160147
20,1.224998130514492,1.3823005681785825,0.00000000000000011102230246251565,0.00140155
20,1.2500009868512103,1.382300627620259,0.00000000000000011102230246251565,0.00190822
20,1.2750036558069158,1.3823014551497819,0.00000000000000011102230246251565,0.00249047
20,1.2750029003923873,1.256637526633541,0.00000000000000011102230246251565,0.00314373
20,1.2999966700665044,1.2566363041233868,0.00000000000000011102230246251565,0.00386267
20,1.3250002593222387,1.25663674217377,0.00000000000000011102230246251565,0.00464144
20,1.350003539561656,1.2566378684822666,0.00000000000000011102230246251565,0.0118272
20,1.3749973092351855,1.2566367064412884,0.00000000000000011102230246251565,0.00727369
20,1.4000008984911403,1.256637113839227,0.00000000000000011102230246251565,0.00822829
20,1.4250041787310659,1.2566381743467145,0.00000000000000011102230246251565,0.0194261
20,1.4499982574213666,1.256636411237848,0.00000000000000011102230246251565,0.0112354
20,1.4750015376602155,1.2566374477079139,0.00000000000000011102230246251565,0.0122658
20,1.4999953073343264,1.2566363895136161,0.00000000000000011102230246251565,0.0276369
20,1.5249988965900927,1.2566367687150768,0.00000000000000011102230246251565,0.0153657
20,1.550002176829439,1.2566377492664982,0.00000000000000011102230246251565,0.0163861
20,1.5749962555206283,1.2566361328307214,0.00000000000000011102230246251565,0.035775
20,1.5999995357589951,1.25663709267852,0.00000000000000011102230246251565,0.0193508
20,1.6250031250151489,1.2566374377241105,0.00000000000000011102230246251565,0.0202954
20,1.6499968946891992,1.2566364758817257,0.00000000000000011102230246251565,0.0433155
20,1.6750001749280508,1.2566373876300674,0.00000000000000011102230246251565,0.0229594
20,1.700003764184362,1.2566377131148263,0.00000000000000011102230246251565,0.0237834
20,1.7249975338579473,1.256636789101911,0.00000000000000011102230246251565,0.0498973
20,2.049995461092536,1.0053110921455202,0.00000000000000011102230246251565,0.0949378
20,2.100003144211932,1.0053084953492335,0.00000000000000011102230246251565,0.326347
20,2.1500054690628114,1.0053099464397153,0.00000000000000011102230246251565,0.155353
21,2.1830877082950653,1.1309735257855378,0.641369921825477,1.85477
21,2.2372788363018143,1.1309731925455542,0.6362675196603442,0.477707
21,2.2913401025733826,1.1309728768441032,0.6312891917510536,0.366067
21,2.399113035161328,1.130972292795358,0.6216967258585319,0.342391
21,2.3452829341893913,1.1309725773320982,0.6264339311803204,0.458738
21,1.3686236048322415,1.2566353420568666,0.6072501529253855,0.0000690601
21,2.5686060181789263,1.2566376107996136,0.6971022778531791,0.135906
21,2.62479709236657,1.256637113839227,0.693017266703245,0.381536
21,2.6808536697606233,1.2566366399920699,0.689012188776712,0.378651
21,1.567148846527668,1.0053100225586027,0.6980858533017922,0.00520334
21,1.595774283025328,1.0053105538647182,0.6952583825509614,0.00635507
21,1.6813621302848474,1.0053086860582778,0.687057135124224,0.0290725
21,1.70980940035549,1.0053092030264428,0.6844148870646746,0.0362381
21,1.7949111380235512,1.0053112292589972,0.6767456471112685,0.028898
21,1.8231978186485962,1.0053080353490305,0.6742764917798602,0.0638835
21,1.9360313196405166,1.005310954107525,0.6647789801958607,0.0950425
21,1.9641597963579747,1.0053080140184287,0.662506683780711,0.10205
21,2.0764132483771145,1.005310222756,0.6537545208059983,0.122721
21,2.1044129909314377,1.005311102023217,0.651653525202808,0.0631451
21,1.9922611921786262,1.0053084617931947,0.6602632821499708,0.108605
21,2.0203397731559907,1.0053094077120694,0.6580605220082825,0.114658
21,2.0483848492653913,1.0053098213168628,0.6558864825691735,0.059432
21,1.8514510519319702,1.0053090829680662,0.6718399094330875,0.0719695
21,1.8796766303266104,1.0053095425795153,0.6694477776706729,0.0799222
21,1.9078682541580276,1.0053099873637974,0.6670929371752286,0.0876419
21,1.7382167086310039,1.0053097015302186,0.6818170516405935,0.0438443
21,1.7665777437772163,1.0053107750515948,0.6792558536789901,0.0517516
21,1.624351801411874,1.0053110647346455,0.6924778737560396,0.0166093
21,1.6528764989027462,1.0053075123507786,0.6897472730015084,0.0224858
21,1.3414468286328012,0.8796457095303097,0.610780216164562,0.0000671811
21,1.368627549133803,0.87964554006477,0.6072479397772781,0.000251232
21,1.4228757698274295,0.8796458644110634,0.6004150944331488,0.00303295
21,1.449946453291638,0.8796463311504465,0.5971092930666828,0.00571616
21,1.3957696391245942,0.8796460335663756,0.6037940044407233,0.00128608
21,2.1044124685434173,1.130974324134667,0.6516537368116293,0.0642379
21,1.5671492757704992,0.8796461628095915,0.6980855936331272,0.00416863
21,2.5686062686998175,1.1309740991118342,0.6971021855945023,0.250573
22,2.862497626766178,0.523598989689358,1.7504752321923742,0.0948743
22,2.9125045449277844,0.5235987153841319,1.756249606988788,0.0525238
22,2.9625002697351777,0.5235992439919556,1.7619213667635196,0.0559461
22,3.012503887345044,0.5235986813445823,1.7675009872294247,0.000000000000000710543
23,1.423241946218562,0.6283182987213634,0.7129579264719277,0.873939
23,1.452136510163559,0.6283182691731508,0.7098823659898876,2.37145
23,1.538475865112612,0.6283184869916859,0.7009608559186161,0.120439
23,1.5671483965177004,0.6283193964987059,0.6980861255336899,0.0253594
23,1.595775136226906,0.6283168697697539,0.6952578789016182,0.00475203
23,1.6243479578790991,0.6283195839636633,0.6924800887084427,0.000268209
23,1.4809717352849785,0.6283187411248176,0.7068584067193897,1.42677
23,1.509750351099479,0.6283185192311501,0.7038853008638232,0.479956
23,1.423242246045978,0.5026549218709031,0.7129577199475514,0.0000554257
23,1.4521344799397884,0.5026561575176834,0.7098837271692551,0.000188973
24,1.5374457390597562,0.37699238494507636,0.2229958900291583,0.0150041
24,1.56258677106937,0.3769909459165556,0.22156683249333614,0.0159839
24,1.7385309004515852,0.37699126650267645,0.21250923596431487,0.0496648
24,1.7636612885985223,0.3769921445882589,0.21133629637261836,0.0258057
24,1.8382235077381095,0.3769905422159664,0.20571519596030474,0.694591
24,1.9382805018379048,0.37699038352646613,0.20038937748571298,0.0704154
24,1.8882515102337398,0.3769902094361297,0.20299719667427168,0.185
24,1.5877182014781464,0.3769919283105196,0.22017468135136778,0.0348454
24,1.6128587516741817,0.3769905422159664,0.21881698626455556,0.018822
24,1.637989755072357,0.37699150021624006,0.21749343576890537,0.0403213
24,1.6631297297399865,0.37699016335894847,0.21620121047320026,0.0214432
24,1.688260796747943,0.3769916615688379,0.21494125725039218,0.0452954
24,1.7134003407543141,0.376990362209995,0.21370987816525278,0.0237847
24,1.1854705615400154,0.25132723783867944,0.247739085394662,0.0000654276
24,1.2106248170552263,0.2513267147692332,0.24561313699548656,0.000369137
24,1.3111973362270837,0.25132840011352203,0.23773681594333268,0.00313245
24,1.3614808966184577,0.251327843431722,0.23413393546109376,0.0100239
24,1.4620384385005067,0.2513275269740707,0.22751164667586574,0.0100344
24,1.5374455275257723,0.2513283077208442,0.22299592173800836,0.0140137
24,1.4871807964790293,0.25132643013437184,0.22596524340304838,0.0230399
24,1.5123134643363458,0.2513277131698662,0.22446093777752724,0.0130167
24,1.3866260160367683,0.25132665948193256,0.23240763930025082,0.00627909
24,1.4117611853744954,0.25132803166148604,0.23073087567796993,0.0071766
24,1.4369049031372954,0.2513268866343728,0.22909864178989817,0.0171661
24,1.3363443242536708,0.251327159919011,0.235908476345588,0.00383992
24,1.235767679522733,0.2513274787518242,0.24355408609292117,0.00161845
24,1.2609091216158284,0.25132821155695256,0.24155749120360642,0.00140867
24,1.2860584207387316,0.2513269255256753,0.23961781817142833,0.00439959
24,1.9382738096203023,0.502655516023662,0.2003900880352923,0.101291
24,1.9883062984359328,0.5026544876833067,0.19788527846225695,0.126468
24,2.0383308893204752,0.5026554813761968,0.19547947440522587,0.143763
25,2.2852652149726516,0.2513274787518242,0.7187213814890121,2.79434
25,2.342277941785731,0.251327104950306,0.714235629146877,0.147847
25,1.2711998098587807,0.5026561575176834,0.4551753768285454,0.000375958
25,1.2970186944843933,0.5026552905631181,0.4518774917759301,0.000553944
25,1.374387219090748,0.5026560507624404,0.442502854793443,0.00249377
25,1.3228234231812648,0.5026537294798878,0.44866827007569526,0.000894055
25,1.3486150989607821,0.5026529474696249,0.44554279623192516,0.0031929
25,1.3414481754119314,0.3769905422159664,0.6107794386604217,0.0000694274
25,1.3686250925483574,0.3769918750872727,0.6072493181655616,0.000271492
25,1.4228740430993885,0.3769913065125396,0.6004160112490255,0.00309976
25,1.4499496015534472,0.376990296085475,0.5971076656659143,0.00572462
25,1.5309700759926694,0.3769910157878626,0.5876114662125532,0.0160356
25,1.5579160208348846,0.37699216368597666,0.5845804632551587,0.0214666
25,1.5848432007769728,0.3769905422159664,0.5816093513340954,0.00000000000000019984
25,1.4769847244545218,0.37699152724628887,0.5938754421926534,0.0092321
25,1.5039964621999615,0.3769898228817643,0.5907083067608402,0.00619557
25,1.3957717286075113,0.37699001826488887,0.603792864286234,0.00134946
25,1.4521339890967362,0.3769918750872727,0.7098840562597202,0.000386065
25,1.4809733991534082,0.37699001826488887,0.706857320307391,0.00179193
25,1.5671486351715334,0.37699152724628887,0.6980859811608885,0.0122899
25,1.595776832049206,0.3769898228817643,0.6952568778513706,0.0184669
25,1.68136529363015,0.3769905422159664,0.6870553955175931,0.0447272
25,1.7098078702711017,0.376991656980397,0.68441570954287,0.0556588
25,1.7949111941154636,0.37699033427807765,0.6767456188875182,0.0926328
25,1.823199978926064,0.37699137698723234,0.6742754276874111,0.105733
25,1.7382179591685274,0.3769901024712548,0.6818163943189283,0.0674099
25,1.766574715637298,0.37699118583386043,0.679257410692124,0.0797969
25,1.6243496788465837,0.3769910157878626,0.6924790969466795,0.0259933
25,1.652876457757506,0.37699216368597666,0.6897472961594926,0.0347878
25,1.5097492921614502,0.3769913065125396,0.7038859745842987,0.00402983
25,1.5384786578493703,0.376990296085475,0.7009591237657081,0.00749041
25,1.5138599988895933,0.25132723783867944,0.7758799933755102,0.0012256
25,1.5443707602195142,0.2513267147692332,0.7734833343517754,0.00550727
25,1.6657539466860043,0.25132840011352203,0.7641833253534567,0.0288455
25,1.6959646649352693,0.251327159919011,0.7619305247721263,0.0359097
25,1.5748057014387522,0.2513274787518242,0.7711166620705703,0.0126068
25,1.6051809387495855,0.25132821155695256,0.7687808612535939,0.013919
25,1.6355039932828046,0.2513269255256753,0.7664690150597493,0.0312848
25,1.423242976823002,0.12566369806112265,0.7129572165809946,0.000070183
25,1.4521347167635652,0.12566372533843942,0.7098835683885933,0.00166019
25,1.538475293834126,0.12566358725119253,0.700961210246714,0.0091613
25,1.5671463685543223,0.12566440825616038,0.698087352345829,0.0133848
25,2.6808573605576256,0.1256632997488999,0.6890109101532875,0.0353333
25,2.736777383472942,0.12566378827932279,0.6850811059941321,0.000946971
25,1.5957760646231038,0.1256634359270412,0.6952573308654568,0.0294926
25,1.6243499168017954,0.1256634650973738,0.6924789598177458,0.0126278
25,2.624795342345761,0.12566385721448858,0.6930178915756033,0.00427889
25,1.4809678487303497,0.125664595811444,0.7068609444349003,0.00312903
25,1.5097526171134792,0.12566355880225646,0.7038838591791671,0.00572444
25,1.4001605867474631,0.3769898228817643,0.4395359763521378,0.00725766
25,1.425912877061218,0.3769910157878626,0.43664918229154326,0.00494328
25,1.5031198431402601,0.376991656980397,0.4284108820324941,0.0198914
25,1.5288437153041512,0.3769901024712548,0.425796433250708,0.0118676
25,1.6059547866474948,0.37699137698723234,0.41832893954122335,0.0362016
25,1.6573319902545174,0.3769909459165556,0.41363698263864834,0.0447882
25,1.734351510169147,0.37699150021624006,0.4069931018679689,0.0286492
25,1.785676828891499,0.3769916615688379,0.40280550647678603,0.0325088
25,1.8626294323010149,0.3769921445882589,0.39685948572357455,0.0752029
25,1.9368530788536853,0.3769905422159664,0.38751496355221376,0.974715
25,1.811337405402428,0.376990362209995,0.4007791655584241,0.0686074
25,1.836985324052699,0.37699126650267645,0.39879831364440915,0.0360112
25,1.760020573464981,0.37699016335894847,0.40487511597679826,0.0612285
25,1.6830072771063704,0.3769919283105196,0.41137205494642537,0.0245227
25,1.708686210084227,0.3769905422159664,0.4091566800702366,0.0532192
25,1.6316422074992423,0.37699238494507636,0.41595688829721256,0.0202478
25,1.5545515417759552,0.37699118583386043,0.4232480085921072,0.0277805
25,1.5802609306709445,0.37699033427807765,0.4207576511765925,0.0159718
25,1.451654664404038,0.37699216368597666,0.4338343151486287,0.0129246
25,1.477395904714779,0.3769905422159664,0.4310873658921439,0.00812633
25,1.6959638893234135,0.1256634650973738,0.7619310246368572,0.0207416
25,1.7261028760155057,0.12566424193397366,0.7597002803257189,0.0472564
25,1.7561954775593747,0.12566425509965778,0.757503635797716,0.0856646
25,1.7862430978422281,0.12566335626965094,0.7553289462269394,0.0670479
25,1.8162306654412042,0.1256640934323575,0.7531839877907808,0.0364829
25,1.6243492319156616,0,0.6924793545043968,0.0141232
25,1.6528793322211999,0,0.6897456783148497,0.0329107
25,1.7382158834851325,0,0.6818174853638896,0.0862744
25,1.7665759797132985,0,0.6792567607267959,0.032
25,1.6813640348241068,0,0.687056087766868,0.0614897
25,1.7098099421865578,0,0.6844145958105405,0.0492623
25,2.6247960140932856,0,0.6930176517174673,0.21019
25,2.680854706991783,0,0.6890118294423737,0.0369443
25,2.7367792634591486,0,0.6850804736849585,0.0108489
25,1.5848440461086384,0.25132665948193256,0.581608966265247,0.0274796
25,1.7098085849009532,0.25132803166148604,0.6844153254020287,0.0339476
25,1.7382187036032033,0.2513268866343728,0.6818160030214536,0.019506
25,1.8232000886419462,0.2513277131698662,0.6742753736445296,0.0583318
25,1.8796771477314926,0.25132725201972284,0.6694475331898073,0.0721169
25,1.9641605838158958,0.2513279968568344,0.6625063333389145,0.0878332
25,2.0203387919465388,0.2513275620448495,0.6580609422010197,0.098601
25,2.1044132942699254,0.25132679774866806,0.6516534023265937,0.111099
25,2.048386924786428,0.2513271902748219,0.6558856103141796,0.103275
25,2.076410254556888,0.2513277225656862,0.6537557558958992,0.107445
25,1.9922648280640303,0.25132701090641574,0.6602616951312564,0.0934438
25,1.9078637393852318,0.25132783482790994,0.6670950276166027,0.0385309
25,1.9360302769504922,0.2513274351222468,0.6647794534355109,0.0818098
25,1.8514487403449764,0.2513283077208442,0.6718410244445605,0.0653138
25,1.7665751769140765,0.2513275269740707,0.6792571735116679,0.0442198
25,1.7949113874785017,0.25132643013437184,0.6767455215931185,0.0512652
25,1.9357138706350687,0.37699238494507636,0.7448673333095491,0.118919
25,1.9654842410459565,0.3769909459165556,0.7428557419260091,0.132023
25,2.1137051052916536,0.3769916615688379,0.7331796437587217,0.196558
25,2.1432394950823856,0.376990362209995,0.7313141628574871,0.20609
25,2.1727398989856104,0.37699126650267645,0.7294818752188397,0.214776
25,2.2022011285813567,0.3769921445882589,0.7276688996177085,0.222579
25,1.9952016531040164,0.3769919283105196,0.7408703016164119,0.144893
25,2.0248869039321677,0.3769905422159664,0.7389072330955156,0.157389
25,2.054525580395873,0.37699150021624006,0.7369727851491766,0.169388
25,2.0841384610922566,0.37699016335894847,0.7350632347095083,0.275238
25,2.0882428757883984,0.7539829989523988,0.3743527663615571,0.00491065
25,2.138675883407535,0.7539797621098129,0.37027450553874713,0.0759315
25,2.2395180273552167,0.7539839531399891,0.3625338405617647,0.0351364
25,2.289930375304891,0.7539843104824523,0.358858127083419,0.0417908
25,2.1891045896667434,0.7539802391095412,0.3663359892076165,0.0405382
25,2.1386734132094594,0.6283194988749476,0.3702749733872651,0.0259868
25,2.1890991119636407,0.6283200099011799,0.3663369901193864,0.0211438
25,2.289933299605908,0.6283182267586785,0.3588576284432169,0.101164
25,2.3403362971556034,0.6283187318521068,0.35530457919310177,0.17259
25,1.936851462129453,0.2513274787518242,0.3875153203872185,0.059333
25,1.987330150931143,0.251327104950306,0.3829654536707581,0.232905
25,2.183089550087215,0.12566355880225644,0.6413692196384196,1.53174
25,2.2372769094718694,0.12566359647790382,0.6362682279801819,0.403479
25,2.291342716506852,0.12566349468841578,0.6312882644061057,0.422829
25,2.3991164288037377,0.12566343698586135,0.6216956016703753,0.320423
25,2.452844027754109,0.12566334653487812,0.617070510648618,0.121223
25,2.5600080761896047,0.1256632997488999,0.6081596310822207,0.00012747
25,2.6134553454553227,0.12566378827932279,0.6038661944157028,0.000470774
25,2.7201232507472892,0.12566372533843942,0.5955823378776,0.146417
25,2.3452818646806612,0.125664040853486,0.6264342976748668,0.318388
25,2.189103706754205,0.5026545040435069,0.36633615053717733,0.151538
25,2.239515613575623,0.5026546154490448,0.36253426645408865,0.129674
25,2.2899300717366895,0.50265451888184,0.35885817884674653,0.0751622
25,2.1653736190599995,0.2513272606029718,0.5225587123905233,0.277518
25,2.217119717612245,0.2513269115646792,0.5176194855633194,0.2583
25,2.3204571779276604,0.25132673704621133,0.5081831145633755,0.172738
25,2.37204815265226,0.25132807087200654,0.5036759800204078,0.195272
25,2.475123943810491,0.2513278555552606,0.4950449995536355,0.119857
25,2.423605111293711,0.2513277354576472,0.4992974593526708,0.204984
25,2.2688114371626393,0.25132706426932144,0.5128282355610068,0.236505
25,2.452840009539962,0,0.6170717984055448,0.248029
25,2.506467977553274,0,0.6125613434380031,0.00593821
25,2.613457314153036,0,0.6038656205925876,0.0109038
25,2.6668293083735226,0,0.5996735885754453,0.0323348
25,2.72012649575346,0,0.5955814470207049,0.0448679
25,2.5600052973578005,0,0.6081604664738212,0.0534831
25,2.624795342345761,-0.12566385721448858,0.6930178915756033,0.000123978
25,2.6808573605576256,-0.1256632997488999,0.6890109101532875,0.000110931
25,2.736777383472942,-0.12566378827932279,0.6850811059941321,0.0000580173
25,2.475124353782856,0.12566378827932279,0.4950449034868908,0.0551839
25,2.5266117626576508,0.12566369806112265,0.4909136500191138,0.170118
25,2.578055211968122,0.12566372533843942,0.4868985424519119,0.150808
25,2.9856455176393597,0.12566392742933633,0.5765207966402982,0.00145512
25,3.038587954355773,0.1256634650973738,0.5729690739673282,0.078589
25,3.14432392202203,0.12566379090053736,0.5661075442595196,0.0688528
25,3.197130265778359,0.12566335626965094,0.5627904607310108,0.107185
25,3.3553162433004737,0.12566369088257817,0.5532846296641004,0.0252681
25,3.249892389139831,0.12566373910554882,0.5595513820311125,0.0918215
25,3.302626898288694,0.12566366874344112,0.5563827918128975,0.0349972
25,3.091471796101171,0.1256638675505368,0.5694985981303341,0.0751287
25,2.8862378210320783,0.1256634650973738,0.46503338846070214,0.00616149
25,2.937521981141418,0.1256638675505368,0.4617213660455517,0.027008
25,3.0913101265465097,0.12566373910554882,0.4522923383569452,0.159584
25,3.1425508975034915,0.12566366874344112,0.44930760737774905,0.0409999
25,3.1937712896286112,0.12566369088257817,0.44639864330251183,0.133058
25,3.244993205615229,0.12566362372299747,0.443561915597084,0.0323977
25,2.9888017928594732,0.12566379090053736,0.45849582949024265,0.0397114
25,3.040067610507372,0.12566335626965094,0.455353782581222,0.219183
25,3.1443236319596624,0,0.5661076083776189,0.00372028
25,3.1971264070098946,0,0.5627912927847356,0.0347475
25,3.2498933896514206,0,0.5595511714909723,0.028072
25,3.302624212410489,0,0.5563833436300644,0.00579006
25,3.6032773476834947,0.2513278555552606,0.4255100857293442,0.0208489
25,3.6544388604710574,0.25132764350320835,0.4231650904243479,0.0323035
26,2.793802763052718,0,0.32796764742590906,0.137634
26,2.844181484623652,0,0.32536728163387546,0.51873
26,3.0457005498741996,0,0.3156783597935164,0.259937
26,3.0960823502615367,0,0.3134200294081624,0.314304
26,3.297623792520305,0,0.30496935229239486,0.195617
26,3.3480129966332273,0,0.3029911622575923,0.212582
26,3.398404454507438,0,0.3010633246302611,0.147362
26,3.650390151764603,0,0.2921108548507527,0.111722
26,3.7007922137834215,0,0.2904456194449082,0.203092
26,4.0032592379709815,0,0.2812339064676251,0.101082
26,3.751197839743993,0,0.2888205574117666,0.219512
26,3.801606751677506,0,0.28723404436468586,0.115423
26,3.852015904899667,0,0.28568194614687986,0.168544
26,3.9024278597304014,0,0.2841654683874372,0.142446
26,3.9528423790482714,0,0.2826832264578031,0.120121
26,3.4487975310244003,0,0.2991832997335775,0.0339703
26,3.1464653520011945,0,0.3112221557698101,0.280263
26,3.19685004194066,0,0.3090827572605467,0.24923
26,3.247236018229812,0,0.306999054856229,0.221067
26,2.8945603804128877,0,0.3228411515807616,0.46993
26,2.9449395622064976,0,0.32038603501798923,0.424105
26,2.995319469188554,0,0.31799926593531985,0.381401
26,2.3204533694948495,0,0.5081840998148793,0.000173801
26,2.3720520778642276,0,0.5036749982614073,0.0116207
26,2.475126432508045,0,0.49504441639038166,0.0087017
26,2.526610039479777,0,0.49091404127290844,0.0283525
26,2.5780586357955473,0,0.4868977886649506,0.0369279
26,2.4236084301099465,0,0.49929665619415436,0.0167152
26,2.8862362792397995,0,0.465033674271398,0.175958
26,2.9375255318039364,0,0.46172072518098384,0.151344
26,2.988801487703725,0,0.458495883144486,0.175959
26,3.142548074811267,0,0.449308067504749,0.0200976
26,3.1937737052584048,0,0.4463982589901082,0.276816
26,3.244991738910902,0,0.4435621434337393,0.186757
26,3.0400635523784696,0,0.45535447800252055,0.064174
26,3.448798980862758,0.1256637487007865,0.29918316631922015,0.09553
26,3.4991898535598214,0.12566376667275947,0.29735134980353584,0.139714
26,3.5495893100172875,0.12566370728725845,0.29556035892988236,0.118271
26,3.852011721073678,0.12566386461733164,0.28568227359811965,0.0197553
26,3.9024277809204873,0.1256638094684367,0.2841654744401509,0.0187011
26,3.9528462881771658,0.12566349468841578,0.2826829317682742,0.0338326
26,4.003257717420776,0.1256637713170782,0.28123401901044215,0.0452943
26,4.053680813643324,0.12566371948559088,0.279816072509245,0.240603
26,4.104096167301151,0.1256637350974066,0.2784293157121467,0.0554123
26,3.5999932022296934,0.12566364962322132,0.2938148474502611,0.15206
26,3.650388729937676,0.1256636682401833,0.29211097521164475,0.237197
26,3.603282581757917,0.1256637487007865,0.4255093902841833,0.0268934
26,3.6544381727504986,0.12566376667275947,0.423165179911876,0.0436757
26,3.7055994923748843,0.12566370728725845,0.42087313900462275,0.0174335
26,3.5495868365932393,0.2513277225656862,0.29556057708775874,0.0234055
26,3.5999872956164722,0.25132751858758684,0.2938153577485336,0.0422249
26,3.6503892578634676,0.2513275971756422,0.2921109305215106,0.00797929
26,4.0124697541151635,0.12566386461733164,0.40814193755415834,0.0165556
26,4.0636123384250125,0.1256638094684367,0.40617640379429587,0.0418306
26,4.114752490728452,0.12566349468841578,0.404251459405651,0.0335642
