x(m),y(m),z(m),Energy (GeV)
0.045,-3.38462e-06,0
0.065,-6.77778e-06,0
0.125,0,0
0.145,0,0
0.165,0,0
6.1772,-0.0399997,-0.1
6.17726,-0.0299999,0
6.20721,-0.0399997,-0.1
6.20726,-0.0299999,0
6.23721,-0.0399997,-0.1
6.23726,-0.0299999,0
6.26721,-0.0399997,-0.1
6.26721,-0.0399997,0
6.57721,-0.0399998,-0.1
6.57721,-0.0399998,0
6.82722,-0.0399998,-0.1
6.82722,-0.0399998,0
7.07722,-0.0399998,-0.1
7.07722,-0.0399998,0
7.10722,-0.0399998,-0.1
7.10722,-0.0399998,0
1.18405,-0,7.25022e-17,2.13708e-08
1.19285,-0,7.3041e-17,6.95317e-08
1.49973,-0,9.18322e-17,1.47697
1.66553,-0,1.01985e-16,8.84364
1.83133,-0,1.12137e-16,20.5283
1.99713,-0,1.22289e-16,31.0289
2.16293,-0,1.32442e-16,34.1868
2.32873,-0,1.42594e-16,38.5481
2.49453,-0,1.52746e-16,40.0618
2.66033,-0,1.62898e-16,32.7976
2.82613,-0,1.73051e-16,28.6011
2.99193,-0,1.83203e-16,26.3893
3.15773,-0,1.93355e-16,19.5693
3.32353,-0,2.03508e-16,15.768
3.48933,-0,2.1366e-16,12.4704
3.65513,-0,2.23812e-16,10.5404
3.82093,-0,2.33965e-16,7.24041
3.98673,-0,2.44117e-16,5.47487
4.15253,-0,2.54269e-16,4.09289
4.31833,-0,2.64422e-16,3.02878
4.48413,-0,2.74574e-16,2.40634
4.64993,-0,2.84726e-16,1.56321
4.81573,-0,2.94879e-16,1.12737
4.98153,-0,3.05031e-16,0.886906
